Unemployment in New York – STA 9750 2024 Submission Material
…
##-
td <- tempdir(); 
zip_contents <- unzip("zipcodes_maps.zip", 
                      exdir = td)
    
fname_shp <- zip_contents[grepl("shp$", zip_contents)]
nyc_zip_codes_sf <- read_sf(fname_shp)
nyc_zip_codes_sf

Simple feature collection with 33144 features and 5 fields
Geometry type: MULTIPOLYGON
Dimension:     XY
Bounding box:  xmin: -176.6847 ymin: -14.37374 xmax: 145.8304 ymax: 71.34122
Geodetic CRS:  NAD83
# A tibble: 33,144 × 6
   ZCTA5CE10 AFFGEOID10     GEOID10   ALAND10 AWATER10                  geometry
   <chr>     <chr>          <chr>       <dbl>    <dbl>        <MULTIPOLYGON [°]>
 1 36083     8600000US36083 36083   659750662  5522919 (((-85.63225 32.28098, -…
 2 35441     8600000US35441 35441   172850429  8749105 (((-87.83287 32.84437, -…
 3 35051     8600000US35051 35051   280236456  5427285 (((-86.74384 33.25002, -…
 4 35121     8600000US35121 35121   372736030  5349303 (((-86.58527 33.94743, -…
 5 35058     8600000US35058 35058   178039922  3109259 (((-86.87884 34.21196, -…
 6 35619     8600000US35619 35619   337059534  1410483 (((-87.28511 34.32882, -…
 7 35016     8600000US35016 35016   192546773  1522014 (((-86.58133 34.36715, -…
 8 36115     8600000US36115 36115     1536423        0 (((-86.25523 32.40898, -…
 9 36353     8600000US36353 36353   249818378   245714 (((-85.25687 31.41699, -…
10 36728     8600000US36728 36728   234200132  3820726 (((-87.58108 32.13264, -…
# ℹ 33,134 more rows
…
FRED API DATA

# Search for unemployment rate data series for NY counties
search_results <- fredr_series_search_text("unemployment rate county") 

# Filter for NY counties
ny_counties <- search_results %>%
  filter(grepl(", NY$", title, ignore.case = TRUE))  # Match titles ending with ", NY"

# Display the list of NY counties and their series IDs
ny_counties_list <- ny_counties %>%
  select(id, title)
print(ny_counties_list)

# A tibble: 61 × 2
   id                    title                                      
   <chr>                 <chr>                                      
 1 NYBRON5URN            Unemployment Rate in Bronx County, NY      
 2 LAUCN360050000000003A Unemployment Rate in Bronx County, NY      
 3 NYNEWY1URN            Unemployment Rate in New York County, NY   
 4 LAUCN360610000000003A Unemployment Rate in New York County, NY   
 5 NYKING7URN            Unemployment Rate in Kings County, NY      
 6 LAUCN360470000000003A Unemployment Rate in Kings County, NY      
 7 NYWEST9URN            Unemployment Rate in Westchester County, NY
 8 LAUCN361190000000003A Unemployment Rate in Westchester County, NY
 9 NYSUFF0URN            Unemployment Rate in Suffolk County, NY    
10 NYQUEE1URN            Unemployment Rate in Queens County, NY     
# ℹ 51 more rows
…
NYC Unemployment - ZIP code level

get unrate by zip code from census data as it’s unavailable in fred

# get a list of all variables from 5 year estimates
variables <- load_variables(year = 2022, dataset = "acs5", cache = TRUE)
variables

# A tibble: 28,152 × 4
   name        label                                    concept        geography
   <chr>       <chr>                                    <chr>          <chr>    
 1 B01001A_001 Estimate!!Total:                         Sex by Age (W… tract    
 2 B01001A_002 Estimate!!Total:!!Male:                  Sex by Age (W… tract    
 3 B01001A_003 Estimate!!Total:!!Male:!!Under 5 years   Sex by Age (W… tract    
 4 B01001A_004 Estimate!!Total:!!Male:!!5 to 9 years    Sex by Age (W… tract    
 5 B01001A_005 Estimate!!Total:!!Male:!!10 to 14 years  Sex by Age (W… tract    
 6 B01001A_006 Estimate!!Total:!!Male:!!15 to 17 years  Sex by Age (W… tract    
 7 B01001A_007 Estimate!!Total:!!Male:!!18 and 19 years Sex by Age (W… tract    
 8 B01001A_008 Estimate!!Total:!!Male:!!20 to 24 years  Sex by Age (W… tract    
 9 B01001A_009 Estimate!!Total:!!Male:!!25 to 29 years  Sex by Age (W… tract    
10 B01001A_010 Estimate!!Total:!!Male:!!30 to 34 years  Sex by Age (W… tract    
# ℹ 28,142 more rows
…
