Unemployment in New York – STA 9750 2024 Submission Material
…
FRED API DATA

# Search for unemployment rate data series for NY counties
search_results <- fredr_series_search_text("unemployment rate county") 

# Filter for NY counties
ny_counties <- search_results %>%
  filter(grepl(", NY$", title, ignore.case = TRUE))  # Match titles ending with ", NY"

# Display the list of NY counties and their series IDs
ny_counties_list <- ny_counties %>%
  select(id, title)
print(ny_counties_list)

# A tibble: 61 × 2
   id                    title                                      
   <chr>                 <chr>                                      
 1 NYBRON5URN            Unemployment Rate in Bronx County, NY      
 2 LAUCN360050000000003A Unemployment Rate in Bronx County, NY      
 3 NYNEWY1URN            Unemployment Rate in New York County, NY   
 4 LAUCN360610000000003A Unemployment Rate in New York County, NY   
 5 NYKING7URN            Unemployment Rate in Kings County, NY      
 6 LAUCN360470000000003A Unemployment Rate in Kings County, NY      
 7 NYWEST9URN            Unemployment Rate in Westchester County, NY
 8 LAUCN361190000000003A Unemployment Rate in Westchester County, NY
 9 NYSUFF0URN            Unemployment Rate in Suffolk County, NY    
10 NYQUEE1URN            Unemployment Rate in Queens County, NY     
# ℹ 51 more rows
…
